{
  "dev": {
    "api_handler_name": "stripe-prototype-dev",
    "api_handler_arn": "arn:aws:lambda:us-west-2:140222353192:function:stripe-prototype-dev",
    "lambda_functions": {},
    "backend": "api",
    "chalice_version": "1.1.1",
    "rest_api_id": "zxb8vnce4h",
    "api_gateway_stage": "api",
    "region": "us-west-2"
  }
}
